%YAML 1.1
%TAG !u! tag:unity3d.com,2011:
--- !u!114 &11400000
MonoBehaviour:
  m_ObjectHideFlags: 0
  m_CorrespondingSourceObject: {fileID: 0}
  m_PrefabInstance: {fileID: 0}
  m_PrefabAsset: {fileID: 0}
  m_GameObject: {fileID: 0}
  m_Enabled: 1
  m_EditorHideFlags: 0
  m_Script: {fileID: 11500000, guid: a8e88e07960241bab1412c6830b9e0eb, type: 3}
  m_Name: ClientSettings
  m_EditorClassIdentifier: 
  _refreshTime: 5
  _defaultCities:
  - "\u041C\u043E\u0441\u043A\u0432\u0430"
  - "\u041F\u0435\u0440\u043C\u044C"
